%YAML 1.1
%TAG !u! tag:unity3d.com,2011:
--- !u!1045 &1
EditorBuildSettings:
  m_ObjectHideFlags: 0
  serializedVersion: 2
  m_Scenes: []
  m_configObjects:
    com.unity.input.settings: {fileID: 11400000, guid: e029d437caa11cf4a884d390d006b4ca, type: 2}
